{
  "not_understood": [
    "Ich habe leider nicht verstanden wen ich beschimpfen soll."
  ],
  "insult": [
    "Hey {}, {}",
    "Du {}, {}"
  ],
  "protect_person": [
    "Das hättest du gerne. {} lässt dir ausrichten: {}"
  ]
}