{
  "name" : "Beleidigungen",
  "repository" : "https://gitlab.com/DANBER/Snips-Beleidigungen.git",
  "changelog" : "Beschreibung aktualisiert",
  "description" : "Lasse deine Freunde beschimpfen.\nSprüche sind weder jugendfrei noch politisch korrekt.\n\n\"Hey Max, Deine Mudda ist selbst in Minecraft rund.\"\n\"Hey Marie, Wie bist Du eigentlich nach Deiner Abtreibung aus der Mülltonne gekommen?\"\n\nMit Safe-Name Funktion (Eingestellte Personen können nicht beleidigt werden)\n\nFür Entwickler und die, die es werden wollen, was es hier zu lernen gibt:\n- Basis Skillentwicklung\n- Lesen von Texten aus Dateien\n- Nutzereingaben\nKomplexität: einfach\n\nhttps://gitlab.com/DANBER/Snips-Beleidigungen",
  "skillType" : "GITHUB",
  "intents" : [ {
    "id" : "intent_Drzl1g1Qy0"
  } ],
  "id" : "skill_AXy8mB8kqan",
  "language" : "de",
  "imageUrl" : "https://console.snips.ai/images/bundles/bundle-yoga.svg",
  "actionTemplateName" : "python2",
  "parameters" : [ ]
}